{
  "gulp": {
    "javascript": [
      "JavaScript/*.js"
    ],
    "templates": [
      "Templates/*"
    ]
  },
  "overrides": {
    "site/ApplicationConfigurations@dev/JavaScript/Site.Global.Configuration.js": "JavaScript/Site.Global.Configuration.js"
  }
}