{
  "id": "national-site",
  "deployid": "national",
  "name": "National Ladder Site modules",
  "dependencies": [
    "common-site"
  ],
  "endpoint": "true",
  "modules": {
    "ps_national/BaseSassStylesNational": "ps",
    "ps_national/HeaderNational": "ps",
    "ps_national/HomeNational": "ps",
    "ps_national/ColorsNational": "ps",
    "ps_national/FooterNational": "ps",
    "ps_national/GlobalViewsNational": "ps",
    "ps_national/MultiAddCartNational": "ps",
    "ps_national/PSCategoriesNational":"ps",
    "ps_national/QuoteForm": "ps",
    "ps_national/ShoppingApplicationNational" : "ps"
  },
  "tasksConfig": {
    "javascript": [
      {
        "entryPoint": "SC.Shopping.Starter",
        "dependencies": [
          "QuoteForm"
        ]
      },
      {
        "entryPoint": "SC.MyAccount.Starter",
        "dependencies": [
          "QuoteForm"
        ]
      },
      {
        "entryPoint": "SC.Checkout.Starter",
        "dependencies": [
          "QuoteForm"
        ]
      }
    ],
    "ssp-libraries": {
      "dependencies": [
        "QuoteForm.Configuration"
      ]
    },
    "sass": {
      "applications": [
        {
          "name": "Shopping",
          "dependencies": [
            {
              "prepend": "ColorsNational"
            },
            {
              "module": "BaseSassStylesNational",
              "include": [
                "national-atoms",
                "national-variables"
              ]
            },
            "FooterNational",
            "QuoteForm",
            {
              "module": "MultiAddCartNational",
              "include": [
                  "multiaddcart"
              ]
            },
            {
              "module": "GlobalViewsNational",
              "include": [
                "global-views-breadcrumb",
                "global-views-pagination"
              ]
            },
            "HomeNational"
          ]
        },
        {
          "name": "MyAccount",
          "dependencies": [
            {
              "prepend": "ColorsNational"
            },
            {
              "module": "BaseSassStylesNational",
              "include": [
                "national-atoms",
                "national-variables"
              ]
            },
            "FooterNational",
            "QuoteForm",
            {
              "module": "GlobalViewsNational",
              "include": [
                "global-views-breadcrumb",
                "global-views-pagination"
              ]
            },
            "HomeNational"
          ]
        },
        {
          "name": "Checkout",
          "dependencies": [
            {
              "prepend": "ColorsNational"
            },
            {
              "module": "BaseSassStylesNational",
              "include": [
                "national-atoms",
                "national-variables"
              ]
            },
            "FooterNational",
            "QuoteForm",
            {
              "module": "GlobalViewsNational",
              "include": [
                "global-views-breadcrumb",
                "global-views-pagination"
              ]
            },
            "HomeNational"
          ]
        }
      ]
    }
  }
}
