{
  "id": "ss-categories",
  "name": "SS - Categories",
  "dependencies": ["mont-blanc-base"],
  "folders": {
    "modules": "Modules",
    "suitecommerceModules": "Modules/suitecommerce",
    "thirdPartyModules": "Modules/third_parties",
    "distribution": "bin/LocalDistribution",
    "deploy": "bin/DeployDistribution",
    "release": "bin/ReleaseDistribution"
  },
  "modules": {
    "suitecommerce/Categories": {"remove": "2.1.0"},
    "efficiencies/Backbone.PluginInstaller": "1.0.0",
    "efficiencies/Backbone.View.PostContextHook": "1.0.0",
    "efficiencies/EFCore": "1.1.0",
    "efficiencies/EnvironmentFiles": "2.0.0",
    "efficiencies/PSCategories": "1.0.2",
    "efficiencies/PSCategories.Facets": "2.0.0"
  },
  "tasksConfig": {
    "javascript": [
      {
        "entryPoint": "SC.Shopping.Starter",
        "dependencies": [
          {"add": "Backbone.View.PostContextHook", "after": "Backbone.View.Plugins"},
          {"add": "Backbone.PluginInstaller", "after": "Backbone.View.PostContextHook"},
          {"add": "PSCategories", "after": "jQuery.html"},
          {"add": "PSCategories.Facets", "after": "PSCategories"}
        ]
      },
      {
        "entryPoint": "SC.MyAccount.Starter",
        "dependencies": [
          {"add": "Backbone.View.PostContextHook", "after": "Backbone.View.Plugins"},
          {"add": "Backbone.PluginInstaller", "after": "Backbone.View.PostContextHook"},
          {"add": "PSCategories", "after": "jQuery.html"}
        ]
      },
      {
        "entryPoint": "SC.Checkout.Starter",
        "dependencies": [
          {"add": "Backbone.View.PostContextHook", "after": "Backbone.View.Plugins"},
          {"add": "Backbone.PluginInstaller", "after": "Backbone.View.PostContextHook"},
          {"add": "PSCategories", "after": "jQuery.html"}
        ]
      }
    ],
    "ssp-libraries": {
      "dependencies": [
        "PSCategories.Model",
        "PSCategories.Configuration"
      ]
    },
    "sass": {
      "applications": [
        {
          "name": "Shopping",
          "dependencies": [
            "PSCategories.Facets"
          ]
        }
      ]
    }
  }
}
