{
    "gulp": {
        "sass": [
            "Sass/**/*.scss"
        ]
    },
    "overrides": {
        "suitecommerce/BaseSassStyles@1.1.0/Sass/atoms/_typography.scss": "Sass/_typography.scss"
    }
}