{
  "gulp": {
    "sass": [
      "Sass/**/*.scss"
    ]
  },
  "overrides": {
    "themes/eldridge/Theme_BaseSassStyles@1.1/Sass/variables/_qs-eldridge-colors.scss": "Sass/variables/_qs-eldridge-colors.scss",
    "suitecommerce/BaseSassStyles@1.1.0/Sass/molecules/_search.scss": "Sass/molecules/_search.scss",
    "suitecommerce/BaseSassStyles@1.1.0/Sass/molecules/_columns.scss": "Sass/molecules/_columns.scss"
  }
}
