{
    "gulp": {
        "templates": [
            "Templates/*"
        ],
        "sass": [
            "Sass/**/*.scss"
        ]
    },
    "overrides": {
        "themes/eldridge/Theme_Footer@1.1/Sass/_qs-eldridge-footer.scss": "Sass/_qs-eldridge-footer.scss"
    }
}
